Introducción a la programación en R
…
---
# readr::read_csv()

```r
library(readr)
wiki <- read_csv("topviews-2019_01.csv")
# ver el objeto en la consola
wiki
```

```
## # A tibble: 969 x 4
##    Page                    Edits Editors   Views
##    <chr>                   <chr> <chr>     <int>
##  1 Juan Guaidó             363   71      1528909
##  2 Spécial:Recherche       ?     ?        916144
##  3 Emiliano Sala           189   108      697833
##  4 Signo zodiacal          0     0        693382
##  5 Glass (película)        45    26       686480
##  6 Nicolás Maduro          115   28       662031
##  7 Freddie Mercury         9     7        650381
##  8 Presidente de Venezuela 62    38       593387
##  9 Venezuela               70    26       562244
## 10 Kayden Boche            4     4        544663
## # … with 959 more rows
```
…
